\relax 
\bibstyle{abbrvnat}
\citation{Tanaka2015}
\bibdata{mmm}
\bibcite{Tanaka2015}{{1}{2015}{{Tanaka et~al.}}{{Tanaka, Tanaka, and Kawakami}}}
\babel@aux{english}{}
\@writefile{toc}{\contentsline {section}{\numberline {1}Mwenda}{1}}
\@writefile{toc}{\contentsline {section}{\numberline {2}Mustapha}{1}}
\@writefile{toc}{\contentsline {section}{\numberline {3}Mercy}{1}}
